PWD /Users/fabien/dossier sans titre/Cours/bloc4/4_bases_de_donnees_normalisation/cours
INPUT /usr/local/texlive/2017/texmf.cnf
INPUT /usr/local/texlive/2017/texmf-dist/web2c/texmf.cnf
INPUT /usr/local/texlive/2017/texmf-var/web2c/pdftex/pdflatex.fmt
INPUT /Users/fabien/dossier sans titre/Cours/bloc4/4_bases_de_donnees_normalisation/cours/conception_bd.tex
OUTPUT /Users/fabien/dossier sans titre/Cours/bloc4/4_bases_de_donnees_normalisation/cours/conception_bd.log
INPUT /usr/local/texlive/2017/texmf-dist/tex/latex/beamer/beamer.cls
INPUT /usr/local/texlive/2017/texmf-dist/tex/latex/beamer/beamer.cls
INPUT /usr/local/texlive/2017/texmf-dist/tex/latex/etoolbox/etoolbox.sty
INPUT /usr/local/texlive/2017/texmf-dist/tex/latex/etoolbox/etoolbox.sty
INPUT /usr/local/texlive/2017/texmf-dist/tex/latex/beamer/beamerbasemodes.sty
INPUT /usr/local/texlive/2017/texmf-dist/tex/latex/beamer/beamerbasemodes.sty
INPUT /usr/local/texlive/2017/texmf-dist/tex/latex/beamer/beamerbasedecode.sty
INPUT /usr/local/texlive/2017/texmf-dist/tex/latex/beamer/beamerbasedecode.sty
INPUT /usr/local/texlive/2017/texmf-dist/tex/generic/oberdiek/ifpdf.sty
INPUT /usr/local/texlive/2017/texmf-dist/tex/generic/oberdiek/ifpdf.sty
INPUT /usr/local/texlive/2017/texmf-dist/tex/latex/beamer/beamerbaseoptions.sty
INPUT /usr/local/texlive/2017/texmf-dist/tex/latex/beamer/beamerbaseoptions.sty
INPUT /usr/local/texlive/2017/texmf-dist/tex/latex/graphics/keyval.sty
INPUT /usr/local/texlive/2017/texmf-dist/tex/latex/graphics/keyval.sty
INPUT /usr/local/texlive/2017/texmf-dist/tex/latex/geometry/geometry.sty
INPUT /usr/local/texlive/2017/texmf-dist/tex/latex/geometry/geometry.sty
INPUT /usr/local/texlive/2017/texmf-dist/tex/generic/oberdiek/ifvtex.sty
INPUT /usr/local/texlive/2017/texmf-dist/tex/generic/oberdiek/ifvtex.sty
INPUT /usr/local/texlive/2017/texmf-dist/tex/generic/ifxetex/ifxetex.sty
INPUT /usr/local/texlive/2017/texmf-dist/tex/generic/ifxetex/ifxetex.sty
INPUT /usr/local/texlive/2017/texmf-dist/tex/latex/base/size11.clo
INPUT /usr/local/texlive/2017/texmf-dist/tex/latex/base/size11.clo
INPUT /usr/local/texlive/2017/texmf-dist/fonts/map/fontname/texfonts.map
INPUT /usr/local/texlive/2017/texmf-dist/fonts/tfm/public/cm/cmr10.tfm
INPUT /usr/local/texlive/2017/texmf-dist/tex/latex/pgf/basiclayer/pgfcore.sty
INPUT /usr/local/texlive/2017/texmf-dist/tex/latex/pgf/basiclayer/pgfcore.sty
INPUT /usr/local/texlive/2017/texmf-dist/tex/latex/graphics/graphicx.sty
INPUT /usr/local/texlive/2017/texmf-dist/tex/latex/graphics/graphicx.sty
INPUT /usr/local/texlive/2017/texmf-dist/tex/latex/graphics/graphics.sty
INPUT /usr/local/texlive/2017/texmf-dist/tex/latex/graphics/graphics.sty
INPUT /usr/local/texlive/2017/texmf-dist/tex/latex/graphics/trig.sty
INPUT /usr/local/texlive/2017/texmf-dist/tex/latex/graphics/trig.sty
INPUT /usr/local/texlive/2017/texmf-dist/tex/latex/graphics-cfg/graphics.cfg
INPUT /usr/local/texlive/2017/texmf-dist/tex/latex/graphics-cfg/graphics.cfg
INPUT /usr/local/texlive/2017/texmf-dist/tex/latex/graphics-def/pdftex.def
INPUT /usr/local/texlive/2017/texmf-dist/tex/latex/graphics-def/pdftex.def
INPUT /usr/local/texlive/2017/texmf-dist/tex/generic/oberdiek/infwarerr.sty
INPUT /usr/local/texlive/2017/texmf-dist/tex/generic/oberdiek/infwarerr.sty
INPUT /usr/local/texlive/2017/texmf-dist/tex/generic/oberdiek/ltxcmds.sty
INPUT /usr/local/texlive/2017/texmf-dist/tex/generic/oberdiek/ltxcmds.sty
INPUT /usr/local/texlive/2017/texmf-dist/tex/latex/pgf/systemlayer/pgfsys.sty
INPUT /usr/local/texlive/2017/texmf-dist/tex/latex/pgf/systemlayer/pgfsys.sty
INPUT /usr/local/texlive/2017/texmf-dist/tex/latex/pgf/utilities/pgfrcs.sty
INPUT /usr/local/texlive/2017/texmf-dist/tex/latex/pgf/utilities/pgfrcs.sty
INPUT /usr/local/texlive/2017/texmf-dist/tex/generic/pgf/utilities/pgfutil-common.tex
INPUT /usr/local/texlive/2017/texmf-dist/tex/generic/pgf/utilities/pgfutil-common-lists.tex
INPUT /usr/local/texlive/2017/texmf-dist/tex/generic/pgf/utilities/pgfutil-latex.def
INPUT /usr/local/texlive/2017/texmf-dist/tex/latex/ms/everyshi.sty
INPUT /usr/local/texlive/2017/texmf-dist/tex/latex/ms/everyshi.sty
INPUT /usr/local/texlive/2017/texmf-dist/tex/generic/pgf/utilities/pgfrcs.code.tex
INPUT /usr/local/texlive/2017/texmf-dist/tex/generic/pgf/utilities/pgfrcs.code.tex
INPUT /usr/local/texlive/2017/texmf-dist/tex/generic/pgf/systemlayer/pgfsys.code.tex
INPUT /usr/local/texlive/2017/texmf-dist/tex/generic/pgf/systemlayer/pgfsys.code.tex
INPUT /usr/local/texlive/2017/texmf-dist/tex/generic/pgf/utilities/pgfkeys.code.tex
INPUT /usr/local/texlive/2017/texmf-dist/tex/generic/pgf/utilities/pgfkeysfiltered.code.tex
INPUT /usr/local/texlive/2017/texmf-dist/tex/generic/pgf/systemlayer/pgf.cfg
INPUT /usr/local/texlive/2017/texmf-dist/tex/generic/pgf/systemlayer/pgfsys-pdftex.def
INPUT /usr/local/texlive/2017/texmf-dist/tex/generic/pgf/systemlayer/pgfsys-pdftex.def
INPUT /usr/local/texlive/2017/texmf-dist/tex/generic/pgf/systemlayer/pgfsys-common-pdf.def
INPUT /usr/local/texlive/2017/texmf-dist/tex/generic/pgf/systemlayer/pgfsyssoftpath.code.tex
INPUT /usr/local/texlive/2017/texmf-dist/tex/generic/pgf/systemlayer/pgfsyssoftpath.code.tex
INPUT /usr/local/texlive/2017/texmf-dist/tex/generic/pgf/systemlayer/pgfsysprotocol.code.tex
INPUT /usr/local/texlive/2017/texmf-dist/tex/generic/pgf/systemlayer/pgfsysprotocol.code.tex
INPUT /usr/local/texlive/2017/texmf-dist/tex/latex/xcolor/xcolor.sty
INPUT /usr/local/texlive/2017/texmf-dist/tex/latex/xcolor/xcolor.sty
INPUT /usr/local/texlive/2017/texmf-dist/tex/latex/graphics-cfg/color.cfg
INPUT /usr/local/texlive/2017/texmf-dist/tex/latex/graphics-cfg/color.cfg
INPUT /usr/local/texlive/2017/texmf-dist/tex/latex/colortbl/colortbl.sty
INPUT /usr/local/texlive/2017/texmf-dist/tex/latex/colortbl/colortbl.sty
INPUT /usr/local/texlive/2017/texmf-dist/tex/latex/tools/array.sty
INPUT /usr/local/texlive/2017/texmf-dist/tex/latex/tools/array.sty
INPUT /usr/local/texlive/2017/texmf-dist/tex/generic/pgf/basiclayer/pgfcore.code.tex
INPUT /usr/local/texlive/2017/texmf-dist/tex/generic/pgf/basiclayer/pgfcore.code.tex
INPUT /usr/local/texlive/2017/texmf-dist/tex/generic/pgf/math/pgfmath.code.tex
INPUT /usr/local/texlive/2017/texmf-dist/tex/generic/pgf/math/pgfmathcalc.code.tex
INPUT /usr/local/texlive/2017/texmf-dist/tex/generic/pgf/math/pgfmathutil.code.tex
INPUT /usr/local/texlive/2017/texmf-dist/tex/generic/pgf/math/pgfmathparser.code.tex
INPUT /usr/local/texlive/2017/texmf-dist/tex/generic/pgf/math/pgfmathfunctions.code.tex
INPUT /usr/local/texlive/2017/texmf-dist/tex/generic/pgf/math/pgfmathfunctions.basic.code.tex
INPUT /usr/local/texlive/2017/texmf-dist/tex/generic/pgf/math/pgfmathfunctions.trigonometric.code.tex
INPUT /usr/local/texlive/2017/texmf-dist/tex/generic/pgf/math/pgfmathfunctions.random.code.tex
INPUT /usr/local/texlive/2017/texmf-dist/tex/generic/pgf/math/pgfmathfunctions.comparison.code.tex
INPUT /usr/local/texlive/2017/texmf-dist/tex/generic/pgf/math/pgfmathfunctions.base.code.tex
INPUT /usr/local/texlive/2017/texmf-dist/tex/generic/pgf/math/pgfmathfunctions.round.code.tex
INPUT /usr/local/texlive/2017/texmf-dist/tex/generic/pgf/math/pgfmathfunctions.misc.code.tex
INPUT /usr/local/texlive/2017/texmf-dist/tex/generic/pgf/math/pgfmathfunctions.integerarithmetics.code.tex
INPUT /usr/local/texlive/2017/texmf-dist/tex/generic/pgf/math/pgfmathfloat.code.tex
INPUT /usr/local/texlive/2017/texmf-dist/tex/generic/pgf/basiclayer/pgfcorepoints.code.tex
INPUT /usr/local/texlive/2017/texmf-dist/tex/generic/pgf/basiclayer/pgfcorepathconstruct.code.tex
INPUT /usr/local/texlive/2017/texmf-dist/tex/generic/pgf/basiclayer/pgfcorepathusage.code.tex
INPUT /usr/local/texlive/2017/texmf-dist/tex/generic/pgf/basiclayer/pgfcorescopes.code.tex
INPUT /usr/local/texlive/2017/texmf-dist/tex/generic/pgf/basiclayer/pgfcoregraphicstate.code.tex
INPUT /usr/local/texlive/2017/texmf-dist/tex/generic/pgf/basiclayer/pgfcoretransformations.code.tex
INPUT /usr/local/texlive/2017/texmf-dist/tex/generic/pgf/basiclayer/pgfcorequick.code.tex
INPUT /usr/local/texlive/2017/texmf-dist/tex/generic/pgf/basiclayer/pgfcoreobjects.code.tex
INPUT /usr/local/texlive/2017/texmf-dist/tex/generic/pgf/basiclayer/pgfcorepathprocessing.code.tex
INPUT /usr/local/texlive/2017/texmf-dist/tex/generic/pgf/basiclayer/pgfcorearrows.code.tex
INPUT /usr/local/texlive/2017/texmf-dist/tex/generic/pgf/basiclayer/pgfcoreshade.code.tex
INPUT /usr/local/texlive/2017/texmf-dist/tex/generic/pgf/basiclayer/pgfcoreimage.code.tex
INPUT /usr/local/texlive/2017/texmf-dist/tex/generic/pgf/basiclayer/pgfcoreexternal.code.tex
INPUT /usr/local/texlive/2017/texmf-dist/tex/generic/pgf/basiclayer/pgfcorelayers.code.tex
INPUT /usr/local/texlive/2017/texmf-dist/tex/generic/pgf/basiclayer/pgfcoretransparency.code.tex
INPUT /usr/local/texlive/2017/texmf-dist/tex/generic/pgf/basiclayer/pgfcorepatterns.code.tex
INPUT /usr/local/texlive/2017/texmf-dist/tex/latex/pgf/utilities/xxcolor.sty
INPUT /usr/local/texlive/2017/texmf-dist/tex/latex/pgf/utilities/xxcolor.sty
INPUT /usr/local/texlive/2017/texmf-dist/tex/generic/oberdiek/atbegshi.sty
INPUT /usr/local/texlive/2017/texmf-dist/tex/generic/oberdiek/atbegshi.sty
INPUT /usr/local/texlive/2017/texmf-dist/tex/latex/hyperref/hyperref.sty
INPUT /usr/local/texlive/2017/texmf-dist/tex/latex/hyperref/hyperref.sty
INPUT /usr/local/texlive/2017/texmf-dist/tex/generic/oberdiek/hobsub-hyperref.sty
INPUT /usr/local/texlive/2017/texmf-dist/tex/generic/oberdiek/hobsub-hyperref.sty
INPUT /usr/local/texlive/2017/texmf-dist/tex/generic/oberdiek/hobsub-hyperref.sty
INPUT /usr/local/texlive/2017/texmf-dist/tex/generic/oberdiek/hobsub-generic.sty
INPUT /usr/local/texlive/2017/texmf-dist/tex/generic/oberdiek/hobsub-generic.sty
INPUT /usr/local/texlive/2017/texmf-dist/tex/latex/oberdiek/auxhook.sty
INPUT /usr/local/texlive/2017/texmf-dist/tex/latex/oberdiek/auxhook.sty
INPUT /usr/local/texlive/2017/texmf-dist/tex/latex/oberdiek/kvoptions.sty
INPUT /usr/local/texlive/2017/texmf-dist/tex/latex/oberdiek/kvoptions.sty
INPUT /usr/local/texlive/2017/texmf-dist/tex/latex/hyperref/pd1enc.def
INPUT /usr/local/texlive/2017/texmf-dist/tex/latex/hyperref/pd1enc.def
INPUT /usr/local/texlive/2017/texmf-dist/tex/latex/latexconfig/hyperref.cfg
INPUT /usr/local/texlive/2017/texmf-dist/tex/latex/latexconfig/hyperref.cfg
INPUT /usr/local/texlive/2017/texmf-dist/tex/latex/url/url.sty
INPUT /usr/local/texlive/2017/texmf-dist/tex/latex/url/url.sty
INPUT /usr/local/texlive/2017/texmf-dist/tex/latex/hyperref/hpdftex.def
INPUT /usr/local/texlive/2017/texmf-dist/tex/latex/hyperref/hpdftex.def
INPUT /usr/local/texlive/2017/texmf-dist/tex/latex/oberdiek/rerunfilecheck.sty
INPUT /usr/local/texlive/2017/texmf-dist/tex/latex/oberdiek/rerunfilecheck.sty
INPUT /usr/local/texlive/2017/texmf-dist/tex/latex/beamer/beamerbaserequires.sty
INPUT /usr/local/texlive/2017/texmf-dist/tex/latex/beamer/beamerbaserequires.sty
INPUT /usr/local/texlive/2017/texmf-dist/tex/latex/beamer/beamerbasecompatibility.sty
INPUT /usr/local/texlive/2017/texmf-dist/tex/latex/beamer/beamerbasecompatibility.sty
INPUT /usr/local/texlive/2017/texmf-dist/tex/latex/beamer/beamerbasefont.sty
INPUT /usr/local/texlive/2017/texmf-dist/tex/latex/beamer/beamerbasefont.sty
INPUT /usr/local/texlive/2017/texmf-dist/tex/latex/amsfonts/amssymb.sty
INPUT /usr/local/texlive/2017/texmf-dist/tex/latex/amsfonts/amssymb.sty
INPUT /usr/local/texlive/2017/texmf-dist/tex/latex/amsfonts/amsfonts.sty
INPUT /usr/local/texlive/2017/texmf-dist/tex/latex/amsfonts/amsfonts.sty
INPUT /usr/local/texlive/2017/texmf-dist/tex/latex/sansmathaccent/sansmathaccent.sty
INPUT /usr/local/texlive/2017/texmf-dist/tex/latex/sansmathaccent/sansmathaccent.sty
INPUT /usr/local/texlive/2017/texmf-dist/tex/latex/sansmathaccent/sansmathaccent.sty
INPUT /usr/local/texlive/2017/texmf-dist/tex/latex/filehook/filehook.sty
INPUT /usr/local/texlive/2017/texmf-dist/tex/latex/filehook/filehook.sty
INPUT /usr/local/texlive/2017/texmf-dist/tex/latex/filehook/filehook.sty
INPUT /usr/local/texlive/2017/texmf-dist/tex/latex/beamer/beamerbasetranslator.sty
INPUT /usr/local/texlive/2017/texmf-dist/tex/latex/beamer/beamerbasetranslator.sty
INPUT /usr/local/texlive/2017/texmf-dist/tex/latex/beamer/translator/translator.sty
INPUT /usr/local/texlive/2017/texmf-dist/tex/latex/beamer/translator/translator.sty
INPUT /usr/local/texlive/2017/texmf-dist/tex/latex/beamer/translator/translator-language-mappings.tex
INPUT /usr/local/texlive/2017/texmf-dist/tex/latex/beamer/translator/translator-language-mappings.tex
INPUT /usr/local/texlive/2017/texmf-dist/tex/latex/beamer/beamerbasemisc.sty
INPUT /usr/local/texlive/2017/texmf-dist/tex/latex/beamer/beamerbasemisc.sty
INPUT /usr/local/texlive/2017/texmf-dist/tex/latex/beamer/beamerbasetwoscreens.sty
INPUT /usr/local/texlive/2017/texmf-dist/tex/latex/beamer/beamerbasetwoscreens.sty
INPUT /usr/local/texlive/2017/texmf-dist/tex/latex/beamer/beamerbaseoverlay.sty
INPUT /usr/local/texlive/2017/texmf-dist/tex/latex/beamer/beamerbaseoverlay.sty
INPUT /usr/local/texlive/2017/texmf-dist/tex/latex/beamer/beamerbasetitle.sty
INPUT /usr/local/texlive/2017/texmf-dist/tex/latex/beamer/beamerbasetitle.sty
INPUT /usr/local/texlive/2017/texmf-dist/tex/latex/beamer/beamerbasesection.sty
INPUT /usr/local/texlive/2017/texmf-dist/tex/latex/beamer/beamerbasesection.sty
INPUT /usr/local/texlive/2017/texmf-dist/tex/latex/beamer/beamerbaseframe.sty
INPUT /usr/local/texlive/2017/texmf-dist/tex/latex/beamer/beamerbaseframe.sty
INPUT /usr/local/texlive/2017/texmf-dist/tex/latex/beamer/beamerbaseverbatim.sty
INPUT /usr/local/texlive/2017/texmf-dist/tex/latex/beamer/beamerbaseverbatim.sty
INPUT /usr/local/texlive/2017/texmf-dist/tex/latex/beamer/beamerbaseframesize.sty
INPUT /usr/local/texlive/2017/texmf-dist/tex/latex/beamer/beamerbaseframesize.sty
INPUT /usr/local/texlive/2017/texmf-dist/tex/latex/beamer/beamerbaseframecomponents.sty
INPUT /usr/local/texlive/2017/texmf-dist/tex/latex/beamer/beamerbaseframecomponents.sty
INPUT /usr/local/texlive/2017/texmf-dist/tex/latex/beamer/beamerbasecolor.sty
INPUT /usr/local/texlive/2017/texmf-dist/tex/latex/beamer/beamerbasecolor.sty
INPUT /usr/local/texlive/2017/texmf-dist/tex/latex/beamer/beamerbasenotes.sty
INPUT /usr/local/texlive/2017/texmf-dist/tex/latex/beamer/beamerbasenotes.sty
INPUT /usr/local/texlive/2017/texmf-dist/tex/latex/beamer/beamerbasetoc.sty
INPUT /usr/local/texlive/2017/texmf-dist/tex/latex/beamer/beamerbasetoc.sty
INPUT /usr/local/texlive/2017/texmf-dist/tex/latex/beamer/beamerbasetemplates.sty
INPUT /usr/local/texlive/2017/texmf-dist/tex/latex/beamer/beamerbasetemplates.sty
INPUT /usr/local/texlive/2017/texmf-dist/tex/latex/beamer/beamerbaseauxtemplates.sty
INPUT /usr/local/texlive/2017/texmf-dist/tex/latex/beamer/beamerbaseauxtemplates.sty
INPUT /usr/local/texlive/2017/texmf-dist/tex/latex/beamer/beamerbaseboxes.sty
INPUT /usr/local/texlive/2017/texmf-dist/tex/latex/beamer/beamerbaseboxes.sty
INPUT /usr/local/texlive/2017/texmf-dist/tex/latex/beamer/beamerbaselocalstructure.sty
INPUT /usr/local/texlive/2017/texmf-dist/tex/latex/beamer/beamerbaselocalstructure.sty
INPUT /usr/local/texlive/2017/texmf-dist/tex/latex/tools/enumerate.sty
INPUT /usr/local/texlive/2017/texmf-dist/tex/latex/tools/enumerate.sty
INPUT /usr/local/texlive/2017/texmf-dist/tex/latex/beamer/beamerbasenavigation.sty
INPUT /usr/local/texlive/2017/texmf-dist/tex/latex/beamer/beamerbasenavigation.sty
INPUT /usr/local/texlive/2017/texmf-dist/tex/latex/beamer/beamerbasetheorems.sty
INPUT /usr/local/texlive/2017/texmf-dist/tex/latex/beamer/beamerbasetheorems.sty
INPUT /usr/local/texlive/2017/texmf-dist/tex/latex/amsmath/amsmath.sty
INPUT /usr/local/texlive/2017/texmf-dist/tex/latex/amsmath/amsmath.sty
INPUT /usr/local/texlive/2017/texmf-dist/tex/latex/amsmath/amstext.sty
INPUT /usr/local/texlive/2017/texmf-dist/tex/latex/amsmath/amstext.sty
INPUT /usr/local/texlive/2017/texmf-dist/tex/latex/amsmath/amsgen.sty
INPUT /usr/local/texlive/2017/texmf-dist/tex/latex/amsmath/amsgen.sty
INPUT /usr/local/texlive/2017/texmf-dist/tex/latex/amsmath/amsbsy.sty
INPUT /usr/local/texlive/2017/texmf-dist/tex/latex/amsmath/amsbsy.sty
INPUT /usr/local/texlive/2017/texmf-dist/tex/latex/amsmath/amsopn.sty
INPUT /usr/local/texlive/2017/texmf-dist/tex/latex/amsmath/amsopn.sty
INPUT /usr/local/texlive/2017/texmf-dist/tex/latex/amscls/amsthm.sty
INPUT /usr/local/texlive/2017/texmf-dist/tex/latex/amscls/amsthm.sty
INPUT /usr/local/texlive/2017/texmf-dist/tex/latex/beamer/beamerbasethemes.sty
INPUT /usr/local/texlive/2017/texmf-dist/tex/latex/beamer/beamerbasethemes.sty
INPUT /usr/local/texlive/2017/texmf-dist/fonts/tfm/public/cm/cmss10.tfm
INPUT /usr/local/texlive/2017/texmf-dist/tex/latex/beamer/themes/theme/beamerthemedefault.sty
INPUT /usr/local/texlive/2017/texmf-dist/tex/latex/beamer/themes/theme/beamerthemedefault.sty
INPUT /usr/local/texlive/2017/texmf-dist/tex/latex/beamer/themes/font/beamerfontthemedefault.sty
INPUT /usr/local/texlive/2017/texmf-dist/tex/latex/beamer/themes/font/beamerfontthemedefault.sty
INPUT /usr/local/texlive/2017/texmf-dist/tex/latex/beamer/themes/color/beamercolorthemedefault.sty
INPUT /usr/local/texlive/2017/texmf-dist/tex/latex/beamer/themes/color/beamercolorthemedefault.sty
INPUT /usr/local/texlive/2017/texmf-dist/tex/latex/beamer/themes/inner/beamerinnerthemedefault.sty
INPUT /usr/local/texlive/2017/texmf-dist/tex/latex/beamer/themes/inner/beamerinnerthemedefault.sty
INPUT /usr/local/texlive/2017/texmf-dist/tex/latex/beamer/art/beamericonbook.pdf
OUTPUT /Users/fabien/dossier sans titre/Cours/bloc4/4_bases_de_donnees_normalisation/cours/conception_bd.pdf
INPUT /usr/local/texlive/2017/texmf-dist/tex/latex/beamer/art/beamericonbook.pdf
INPUT /usr/local/texlive/2017/texmf-dist/tex/latex/beamer/art/beamericonbook.20.pdf
INPUT /usr/local/texlive/2017/texmf-dist/tex/latex/beamer/art/beamericonbook.20.pdf
INPUT /usr/local/texlive/2017/texmf-dist/tex/latex/beamer/art/beamericonarticle.pdf
INPUT /usr/local/texlive/2017/texmf-dist/tex/latex/beamer/art/beamericonarticle.pdf
INPUT /usr/local/texlive/2017/texmf-dist/tex/latex/beamer/art/beamericonarticle.20.pdf
INPUT /usr/local/texlive/2017/texmf-dist/tex/latex/beamer/art/beamericonarticle.20.pdf
INPUT /usr/local/texlive/2017/texmf-dist/tex/latex/beamer/art/beamericononline.pdf
INPUT /usr/local/texlive/2017/texmf-dist/tex/latex/beamer/art/beamericononline.pdf
INPUT /usr/local/texlive/2017/texmf-dist/tex/latex/beamer/art/beamericononline.20.pdf
INPUT /usr/local/texlive/2017/texmf-dist/tex/latex/beamer/art/beamericononline.20.pdf
INPUT /usr/local/texlive/2017/texmf-dist/tex/latex/beamer/themes/outer/beamerouterthemedefault.sty
INPUT /usr/local/texlive/2017/texmf-dist/tex/latex/beamer/themes/outer/beamerouterthemedefault.sty
INPUT /usr/local/texlive/2017/texmf-dist/tex/generic/babel/babel.sty
INPUT /usr/local/texlive/2017/texmf-dist/tex/generic/babel/babel.sty
INPUT /usr/local/texlive/2017/texmf-dist/tex/generic/babel-french/frenchb.ldf
INPUT /usr/local/texlive/2017/texmf-dist/tex/generic/babel-french/frenchb.ldf
INPUT /usr/local/texlive/2017/texmf-dist/tex/generic/babel/babel.def
INPUT /usr/local/texlive/2017/texmf-dist/tex/latex/carlisle/scalefnt.sty
INPUT /usr/local/texlive/2017/texmf-dist/tex/latex/carlisle/scalefnt.sty
INPUT /usr/local/texlive/2017/texmf-dist/tex/latex/pgf/frontendlayer/tikz.sty
INPUT /usr/local/texlive/2017/texmf-dist/tex/latex/pgf/frontendlayer/tikz.sty
INPUT /usr/local/texlive/2017/texmf-dist/tex/latex/pgf/basiclayer/pgf.sty
INPUT /usr/local/texlive/2017/texmf-dist/tex/latex/pgf/basiclayer/pgf.sty
INPUT /usr/local/texlive/2017/texmf-dist/tex/generic/pgf/modules/pgfmoduleshapes.code.tex
INPUT /usr/local/texlive/2017/texmf-dist/tex/generic/pgf/modules/pgfmoduleplot.code.tex
INPUT /usr/local/texlive/2017/texmf-dist/tex/latex/pgf/compatibility/pgfcomp-version-0-65.sty
INPUT /usr/local/texlive/2017/texmf-dist/tex/latex/pgf/compatibility/pgfcomp-version-0-65.sty
INPUT /usr/local/texlive/2017/texmf-dist/tex/latex/pgf/compatibility/pgfcomp-version-1-18.sty
INPUT /usr/local/texlive/2017/texmf-dist/tex/latex/pgf/compatibility/pgfcomp-version-1-18.sty
INPUT /usr/local/texlive/2017/texmf-dist/tex/latex/pgf/utilities/pgffor.sty
INPUT /usr/local/texlive/2017/texmf-dist/tex/latex/pgf/utilities/pgffor.sty
INPUT /usr/local/texlive/2017/texmf-dist/tex/latex/pgf/utilities/pgfkeys.sty
INPUT /usr/local/texlive/2017/texmf-dist/tex/latex/pgf/utilities/pgfkeys.sty
INPUT /usr/local/texlive/2017/texmf-dist/tex/generic/pgf/utilities/pgfkeys.code.tex
INPUT /usr/local/texlive/2017/texmf-dist/tex/generic/pgf/utilities/pgfkeys.code.tex
INPUT /usr/local/texlive/2017/texmf-dist/tex/latex/pgf/math/pgfmath.sty
INPUT /usr/local/texlive/2017/texmf-dist/tex/latex/pgf/math/pgfmath.sty
INPUT /usr/local/texlive/2017/texmf-dist/tex/generic/pgf/math/pgfmath.code.tex
INPUT /usr/local/texlive/2017/texmf-dist/tex/generic/pgf/math/pgfmath.code.tex
INPUT /usr/local/texlive/2017/texmf-dist/tex/generic/pgf/utilities/pgffor.code.tex
INPUT /usr/local/texlive/2017/texmf-dist/tex/generic/pgf/utilities/pgffor.code.tex
INPUT /usr/local/texlive/2017/texmf-dist/tex/generic/pgf/math/pgfmath.code.tex
INPUT /usr/local/texlive/2017/texmf-dist/tex/generic/pgf/frontendlayer/tikz/tikz.code.tex
INPUT /usr/local/texlive/2017/texmf-dist/tex/generic/pgf/frontendlayer/tikz/tikz.code.tex
INPUT /usr/local/texlive/2017/texmf-dist/tex/generic/pgf/libraries/pgflibraryplothandlers.code.tex
INPUT /usr/local/texlive/2017/texmf-dist/tex/generic/pgf/libraries/pgflibraryplothandlers.code.tex
INPUT /usr/local/texlive/2017/texmf-dist/tex/generic/pgf/modules/pgfmodulematrix.code.tex
INPUT /usr/local/texlive/2017/texmf-dist/tex/generic/pgf/frontendlayer/tikz/libraries/tikzlibrarytopaths.code.tex
INPUT /usr/local/texlive/2017/texmf-dist/tex/generic/pgf/frontendlayer/tikz/libraries/tikzlibrarytopaths.code.tex
INPUT /usr/local/texlive/2017/texmf-dist/tex/latex/base/inputenc.sty
INPUT /usr/local/texlive/2017/texmf-dist/tex/latex/base/inputenc.sty
INPUT /usr/local/texlive/2017/texmf-dist/tex/latex/base/utf8.def
INPUT /usr/local/texlive/2017/texmf-dist/tex/latex/base/utf8.def
INPUT /usr/local/texlive/2017/texmf-dist/tex/latex/base/t1enc.dfu
INPUT /usr/local/texlive/2017/texmf-dist/tex/latex/base/t1enc.dfu
INPUT /usr/local/texlive/2017/texmf-dist/tex/latex/base/ot1enc.dfu
INPUT /usr/local/texlive/2017/texmf-dist/tex/latex/base/ot1enc.dfu
INPUT /usr/local/texlive/2017/texmf-dist/tex/latex/base/omsenc.dfu
INPUT /usr/local/texlive/2017/texmf-dist/tex/latex/base/omsenc.dfu
INPUT /usr/local/texlive/2017/texmf-dist/tex/latex/base/fontenc.sty
INPUT /usr/local/texlive/2017/texmf-dist/tex/latex/base/fontenc.sty
INPUT /usr/local/texlive/2017/texmf-dist/tex/latex/base/t1enc.def
INPUT /usr/local/texlive/2017/texmf-dist/tex/latex/base/t1enc.def
INPUT /usr/local/texlive/2017/texmf-dist/fonts/tfm/jknappen/ec/ecss1095.tfm
INPUT /usr/local/texlive/2017/texmf-dist/tex/latex/beamer/themes/theme/compatibility/beamerthemesplit.sty
INPUT /usr/local/texlive/2017/texmf-dist/tex/latex/beamer/themes/theme/compatibility/beamerthemesplit.sty
INPUT /usr/local/texlive/2017/texmf-dist/tex/latex/beamer/themes/color/beamercolorthemewhale.sty
INPUT /usr/local/texlive/2017/texmf-dist/tex/latex/beamer/themes/color/beamercolorthemewhale.sty
INPUT /usr/local/texlive/2017/texmf-dist/tex/latex/beamer/themes/outer/beamerouterthemesplit.sty
INPUT /usr/local/texlive/2017/texmf-dist/tex/latex/beamer/themes/outer/beamerouterthemesplit.sty
INPUT /usr/local/texlive/2017/texmf-dist/tex/latex/beamer/themes/font/beamerfontthemestructurebold.sty
INPUT /usr/local/texlive/2017/texmf-dist/tex/latex/beamer/themes/font/beamerfontthemestructurebold.sty
INPUT /usr/local/texlive/2017/texmf-dist/tex/latex/beamer/themes/theme/beamerthemeAnnArbor.sty
INPUT /usr/local/texlive/2017/texmf-dist/tex/latex/beamer/themes/theme/beamerthemeAnnArbor.sty
INPUT /usr/local/texlive/2017/texmf-dist/tex/latex/beamer/themes/inner/beamerinnerthemerounded.sty
INPUT /usr/local/texlive/2017/texmf-dist/tex/latex/beamer/themes/inner/beamerinnerthemerounded.sty
INPUT /usr/local/texlive/2017/texmf-dist/tex/latex/beamer/themes/outer/beamerouterthemeinfolines.sty
INPUT /usr/local/texlive/2017/texmf-dist/tex/latex/beamer/themes/outer/beamerouterthemeinfolines.sty
INPUT /usr/local/texlive/2017/texmf-dist/tex/latex/beamer/themes/color/beamercolorthemewolverine.sty
INPUT /usr/local/texlive/2017/texmf-dist/tex/latex/beamer/themes/color/beamercolorthemewolverine.sty
INPUT /usr/local/texlive/2017/texmf-dist/tex/latex/beamer/themes/color/beamercolorthemebeaver.sty
INPUT /usr/local/texlive/2017/texmf-dist/tex/latex/beamer/themes/color/beamercolorthemebeaver.sty
INPUT /usr/local/texlive/2017/texmf-dist/tex/latex/beamer/themes/font/beamerfontthemeprofessionalfonts.sty
INPUT /usr/local/texlive/2017/texmf-dist/tex/latex/beamer/themes/font/beamerfontthemeprofessionalfonts.sty
INPUT /usr/local/texlive/2017/texmf-dist/tex/latex/wasysym/wasysym.sty
INPUT /usr/local/texlive/2017/texmf-dist/tex/latex/wasysym/wasysym.sty
INPUT /usr/local/texlive/2017/texmf-dist/tex/latex/psnfss/times.sty
INPUT /usr/local/texlive/2017/texmf-dist/tex/latex/psnfss/times.sty
INPUT /usr/local/texlive/2017/texmf-dist/tex/latex/subfigure/subfigure.sty
INPUT /usr/local/texlive/2017/texmf-dist/tex/latex/subfigure/subfigure.sty
INPUT /usr/local/texlive/2017/texmf-dist/tex/latex/subfigure/subfigure.cfg
INPUT /usr/local/texlive/2017/texmf-dist/tex/latex/subfigure/subfigure.cfg
INPUT /usr/local/texlive/2017/texmf-dist/tex/latex/fancyvrb/fancyvrb.sty
INPUT /usr/local/texlive/2017/texmf-dist/tex/latex/fancyvrb/fancyvrb.sty
INPUT /usr/local/texlive/2017/texmf-dist/tex/latex/booktabs/booktabs.sty
INPUT /usr/local/texlive/2017/texmf-dist/tex/latex/booktabs/booktabs.sty
INPUT /usr/local/texlive/2017/texmf-dist/tex/latex/multirow/multirow.sty
INPUT /usr/local/texlive/2017/texmf-dist/tex/latex/multirow/multirow.sty
INPUT /usr/local/texlive/2017/texmf-dist/tex/latex/graphics/rotating.sty
INPUT /usr/local/texlive/2017/texmf-dist/tex/latex/graphics/rotating.sty
INPUT /usr/local/texlive/2017/texmf-dist/tex/latex/base/ifthen.sty
INPUT /usr/local/texlive/2017/texmf-dist/tex/latex/base/ifthen.sty
INPUT /usr/local/texlive/2017/texmf-dist/tex/latex/tools/tabularx.sty
INPUT /usr/local/texlive/2017/texmf-dist/tex/latex/tools/tabularx.sty
INPUT /usr/local/texlive/2017/texmf-dist/tex/latex/listings/listings.sty
INPUT /usr/local/texlive/2017/texmf-dist/tex/latex/listings/listings.sty
INPUT /usr/local/texlive/2017/texmf-dist/tex/latex/listings/lstmisc.sty
INPUT /usr/local/texlive/2017/texmf-dist/tex/latex/listings/lstmisc.sty
INPUT /usr/local/texlive/2017/texmf-dist/tex/latex/listings/listings.cfg
INPUT /usr/local/texlive/2017/texmf-dist/tex/latex/listings/listings.cfg
INPUT /usr/local/texlive/2017/texmf-dist/tex/latex/listings/lstlang1.sty
INPUT /usr/local/texlive/2017/texmf-dist/tex/latex/listings/lstlang1.sty
INPUT /Users/fabien/dossier sans titre/Cours/bloc4/4_bases_de_donnees_normalisation/cours/conception_bd.aux
INPUT /Users/fabien/dossier sans titre/Cours/bloc4/4_bases_de_donnees_normalisation/cours/conception_bd.aux
OUTPUT /Users/fabien/dossier sans titre/Cours/bloc4/4_bases_de_donnees_normalisation/cours/conception_bd.aux
INPUT /usr/local/texlive/2017/texmf-dist/tex/latex/psnfss/t1phv.fd
INPUT /usr/local/texlive/2017/texmf-dist/tex/latex/psnfss/t1phv.fd
INPUT /usr/local/texlive/2017/texmf-dist/fonts/tfm/adobe/helvetic/phvr8t.tfm
INPUT /usr/local/texlive/2017/texmf-dist/tex/context/base/mkii/supp-pdf.mkii
INPUT /usr/local/texlive/2017/texmf-dist/tex/context/base/mkii/supp-pdf.mkii
INPUT /usr/local/texlive/2017/texmf-dist/tex/latex/oberdiek/epstopdf-base.sty
INPUT /usr/local/texlive/2017/texmf-dist/tex/latex/oberdiek/epstopdf-base.sty
INPUT /usr/local/texlive/2017/texmf-dist/tex/latex/oberdiek/grfext.sty
INPUT /usr/local/texlive/2017/texmf-dist/tex/latex/oberdiek/grfext.sty
INPUT /usr/local/texlive/2017/texmf-dist/tex/latex/latexconfig/epstopdf-sys.cfg
INPUT /usr/local/texlive/2017/texmf-dist/tex/latex/latexconfig/epstopdf-sys.cfg
INPUT /usr/local/texlive/2017/texmf-dist/tex/latex/hyperref/nameref.sty
INPUT /usr/local/texlive/2017/texmf-dist/tex/latex/hyperref/nameref.sty
INPUT /usr/local/texlive/2017/texmf-dist/tex/generic/oberdiek/gettitlestring.sty
INPUT /usr/local/texlive/2017/texmf-dist/tex/generic/oberdiek/gettitlestring.sty
INPUT /Users/fabien/dossier sans titre/Cours/bloc4/4_bases_de_donnees_normalisation/cours/conception_bd.out
INPUT /Users/fabien/dossier sans titre/Cours/bloc4/4_bases_de_donnees_normalisation/cours/conception_bd.out
INPUT /Users/fabien/dossier sans titre/Cours/bloc4/4_bases_de_donnees_normalisation/cours/conception_bd.out
INPUT /Users/fabien/dossier sans titre/Cours/bloc4/4_bases_de_donnees_normalisation/cours/conception_bd.out
INPUT /Users/fabien/dossier sans titre/Cours/bloc4/4_bases_de_donnees_normalisation/cours/conception_bd.out
INPUT /Users/fabien/dossier sans titre/Cours/bloc4/4_bases_de_donnees_normalisation/cours/conception_bd.out
OUTPUT /Users/fabien/dossier sans titre/Cours/bloc4/4_bases_de_donnees_normalisation/cours/conception_bd.out
INPUT /usr/local/texlive/2017/texmf-dist/tex/latex/beamer/translator/dicts/translator-basic-dictionary/translator-basic-dictionary-English.dict
INPUT /usr/local/texlive/2017/texmf-dist/tex/latex/beamer/translator/dicts/translator-basic-dictionary/translator-basic-dictionary-English.dict
INPUT /usr/local/texlive/2017/texmf-dist/tex/latex/beamer/translator/dicts/translator-bibliography-dictionary/translator-bibliography-dictionary-English.dict
INPUT /usr/local/texlive/2017/texmf-dist/tex/latex/beamer/translator/dicts/translator-bibliography-dictionary/translator-bibliography-dictionary-English.dict
INPUT /usr/local/texlive/2017/texmf-dist/tex/latex/beamer/translator/dicts/translator-environment-dictionary/translator-environment-dictionary-English.dict
INPUT /usr/local/texlive/2017/texmf-dist/tex/latex/beamer/translator/dicts/translator-environment-dictionary/translator-environment-dictionary-English.dict
INPUT /usr/local/texlive/2017/texmf-dist/tex/latex/beamer/translator/dicts/translator-months-dictionary/translator-months-dictionary-English.dict
INPUT /usr/local/texlive/2017/texmf-dist/tex/latex/beamer/translator/dicts/translator-months-dictionary/translator-months-dictionary-English.dict
INPUT /usr/local/texlive/2017/texmf-dist/tex/latex/beamer/translator/dicts/translator-numbers-dictionary/translator-numbers-dictionary-English.dict
INPUT /usr/local/texlive/2017/texmf-dist/tex/latex/beamer/translator/dicts/translator-numbers-dictionary/translator-numbers-dictionary-English.dict
INPUT /usr/local/texlive/2017/texmf-dist/tex/latex/beamer/translator/dicts/translator-theorem-dictionary/translator-theorem-dictionary-English.dict
INPUT /usr/local/texlive/2017/texmf-dist/tex/latex/beamer/translator/dicts/translator-theorem-dictionary/translator-theorem-dictionary-English.dict
INPUT /Users/fabien/dossier sans titre/Cours/bloc4/4_bases_de_donnees_normalisation/cours/conception_bd.nav
INPUT /Users/fabien/dossier sans titre/Cours/bloc4/4_bases_de_donnees_normalisation/cours/conception_bd.nav
INPUT /usr/local/texlive/2017/texmf-dist/fonts/tfm/adobe/helvetic/phvr8t.tfm
INPUT /usr/local/texlive/2017/texmf-dist/fonts/tfm/adobe/helvetic/phvb8t.tfm
INPUT /usr/local/texlive/2017/texmf-dist/fonts/tfm/adobe/helvetic/phvr8t.tfm
INPUT /usr/local/texlive/2017/texmf-dist/fonts/tfm/adobe/helvetic/phvrc8t.tfm
INPUT /usr/local/texlive/2017/texmf-dist/fonts/tfm/adobe/helvetic/phvr8t.tfm
INPUT /usr/local/texlive/2017/texmf-dist/tex/latex/psnfss/t1pcr.fd
INPUT /usr/local/texlive/2017/texmf-dist/tex/latex/psnfss/t1pcr.fd
INPUT /usr/local/texlive/2017/texmf-dist/fonts/tfm/adobe/courier/pcrr8t.tfm
INPUT /usr/local/texlive/2017/texmf-dist/fonts/tfm/public/cm/cmr8.tfm
INPUT /usr/local/texlive/2017/texmf-dist/fonts/tfm/public/cm/cmr6.tfm
INPUT /usr/local/texlive/2017/texmf-dist/fonts/tfm/public/cm/cmmi8.tfm
INPUT /usr/local/texlive/2017/texmf-dist/fonts/tfm/public/cm/cmmi6.tfm
INPUT /usr/local/texlive/2017/texmf-dist/fonts/tfm/public/cm/cmsy8.tfm
INPUT /usr/local/texlive/2017/texmf-dist/fonts/tfm/public/cm/cmsy6.tfm
INPUT /usr/local/texlive/2017/texmf-dist/fonts/tfm/public/amsfonts/cmextra/cmex8.tfm
INPUT /usr/local/texlive/2017/texmf-dist/fonts/tfm/public/amsfonts/cmextra/cmex7.tfm
INPUT /usr/local/texlive/2017/texmf-dist/fonts/tfm/public/amsfonts/cmextra/cmex7.tfm
INPUT /usr/local/texlive/2017/texmf-dist/tex/latex/amsfonts/umsa.fd
INPUT /usr/local/texlive/2017/texmf-dist/tex/latex/amsfonts/umsa.fd
INPUT /usr/local/texlive/2017/texmf-dist/fonts/tfm/public/amsfonts/symbols/msam10.tfm
INPUT /usr/local/texlive/2017/texmf-dist/fonts/tfm/public/amsfonts/symbols/msam7.tfm
INPUT /usr/local/texlive/2017/texmf-dist/fonts/tfm/public/amsfonts/symbols/msam5.tfm
INPUT /usr/local/texlive/2017/texmf-dist/tex/latex/amsfonts/umsb.fd
INPUT /usr/local/texlive/2017/texmf-dist/tex/latex/amsfonts/umsb.fd
INPUT /usr/local/texlive/2017/texmf-dist/fonts/tfm/public/amsfonts/symbols/msbm10.tfm
INPUT /usr/local/texlive/2017/texmf-dist/fonts/tfm/public/amsfonts/symbols/msbm7.tfm
INPUT /usr/local/texlive/2017/texmf-dist/fonts/tfm/public/amsfonts/symbols/msbm5.tfm
INPUT /usr/local/texlive/2017/texmf-dist/tex/latex/wasysym/uwasy.fd
INPUT /usr/local/texlive/2017/texmf-dist/tex/latex/wasysym/uwasy.fd
INPUT /usr/local/texlive/2017/texmf-dist/fonts/tfm/public/wasy/wasy8.tfm
INPUT /usr/local/texlive/2017/texmf-dist/fonts/tfm/public/wasy/wasy6.tfm
INPUT /usr/local/texlive/2017/texmf-dist/fonts/tfm/public/wasy/wasy5.tfm
INPUT /usr/local/texlive/2017/texmf-dist/fonts/tfm/adobe/helvetic/phvb8t.tfm
INPUT /usr/local/texlive/2017/texmf-dist/fonts/tfm/adobe/helvetic/phvr8t.tfm
INPUT /usr/local/texlive/2017/texmf-dist/fonts/vf/adobe/helvetic/phvrc8t.vf
INPUT /usr/local/texlive/2017/texmf-dist/fonts/tfm/adobe/helvetic/phvr8r.tfm
INPUT /usr/local/texlive/2017/texmf-dist/fonts/tfm/adobe/helvetic/phvr8r.tfm
INPUT /usr/local/texlive/2017/texmf-var/fonts/map/pdftex/updmap/pdftex.map
INPUT /usr/local/texlive/2017/texmf-dist/fonts/vf/adobe/helvetic/phvr8t.vf
INPUT /usr/local/texlive/2017/texmf-dist/fonts/tfm/adobe/helvetic/phvr8r.tfm
INPUT /usr/local/texlive/2017/texmf-dist/fonts/vf/adobe/courier/pcrr8t.vf
INPUT /usr/local/texlive/2017/texmf-dist/fonts/tfm/adobe/courier/pcrr8r.tfm
INPUT /usr/local/texlive/2017/texmf-dist/fonts/vf/adobe/helvetic/phvb8t.vf
INPUT /usr/local/texlive/2017/texmf-dist/fonts/tfm/adobe/helvetic/phvb8r.tfm
INPUT /Users/fabien/dossier sans titre/Cours/bloc4/4_bases_de_donnees_normalisation/cours/conception_bd.toc
INPUT /Users/fabien/dossier sans titre/Cours/bloc4/4_bases_de_donnees_normalisation/cours/conception_bd.toc
INPUT /usr/local/texlive/2017/texmf-dist/fonts/tfm/adobe/helvetic/phvb8t.tfm
INPUT /usr/local/texlive/2017/texmf-dist/fonts/vf/adobe/helvetic/phvr8t.vf
INPUT /usr/local/texlive/2017/texmf-dist/fonts/vf/adobe/helvetic/phvb8t.vf
INPUT /usr/local/texlive/2017/texmf-dist/fonts/tfm/adobe/helvetic/phvb8r.tfm
INPUT /Users/fabien/dossier sans titre/Cours/bloc4/4_bases_de_donnees_normalisation/cours/conception_bd.toc
INPUT /Users/fabien/dossier sans titre/Cours/bloc4/4_bases_de_donnees_normalisation/cours/conception_bd.toc
INPUT /Users/fabien/dossier sans titre/Cours/bloc4/4_bases_de_donnees_normalisation/cours/./programme_term1.png
INPUT ./programme_term1.png
INPUT ./programme_term1.png
INPUT /usr/local/texlive/2017/texmf-dist/fonts/tfm/public/cm/cmmi10.tfm
INPUT /usr/local/texlive/2017/texmf-dist/fonts/tfm/public/cm/cmsy10.tfm
INPUT /usr/local/texlive/2017/texmf-dist/fonts/tfm/public/cm/cmex10.tfm
INPUT /usr/local/texlive/2017/texmf-dist/fonts/tfm/public/amsfonts/symbols/msam10.tfm
INPUT /usr/local/texlive/2017/texmf-dist/fonts/tfm/public/amsfonts/symbols/msbm10.tfm
INPUT /usr/local/texlive/2017/texmf-dist/fonts/tfm/public/wasy/wasy10.tfm
INPUT /usr/local/texlive/2017/texmf-dist/fonts/tfm/public/cm/cmtt10.tfm
INPUT /usr/local/texlive/2017/texmf-dist/fonts/tfm/public/cm/cmtt8.tfm
INPUT /usr/local/texlive/2017/texmf-dist/fonts/tfm/public/cm/cmtt8.tfm
INPUT /usr/local/texlive/2017/texmf-dist/fonts/tfm/adobe/helvetic/phvro8t.tfm
INPUT /usr/local/texlive/2017/texmf-dist/fonts/tfm/adobe/helvetic/phvr8t.tfm
INPUT /usr/local/texlive/2017/texmf-dist/fonts/tfm/public/amsfonts/cmextra/cmex7.tfm
INPUT /usr/local/texlive/2017/texmf-dist/fonts/tfm/public/cm/cmtt10.tfm
INPUT /usr/local/texlive/2017/texmf-dist/fonts/tfm/public/cm/cmtt8.tfm
INPUT /usr/local/texlive/2017/texmf-dist/fonts/tfm/public/cm/cmtt8.tfm
INPUT /usr/local/texlive/2017/texmf-dist/fonts/tfm/public/amsfonts/symbols/msam10.tfm
INPUT /usr/local/texlive/2017/texmf-dist/fonts/tfm/public/amsfonts/symbols/msam7.tfm
INPUT /usr/local/texlive/2017/texmf-dist/fonts/tfm/public/amsfonts/symbols/msbm10.tfm
INPUT /usr/local/texlive/2017/texmf-dist/fonts/tfm/public/amsfonts/symbols/msbm7.tfm
INPUT /usr/local/texlive/2017/texmf-dist/fonts/tfm/public/wasy/wasy10.tfm
INPUT /usr/local/texlive/2017/texmf-dist/fonts/tfm/public/wasy/wasy7.tfm
INPUT /usr/local/texlive/2017/texmf-dist/fonts/vf/adobe/helvetic/phvro8t.vf
INPUT /usr/local/texlive/2017/texmf-dist/fonts/tfm/adobe/helvetic/phvro8r.tfm
INPUT /usr/local/texlive/2017/texmf-dist/fonts/tfm/adobe/courier/pcrr8t.tfm
INPUT /usr/local/texlive/2017/texmf-dist/fonts/tfm/adobe/helvetic/phvrc8t.tfm
INPUT /usr/local/texlive/2017/texmf-dist/fonts/vf/adobe/courier/pcrr8t.vf
INPUT /usr/local/texlive/2017/texmf-dist/fonts/tfm/adobe/courier/pcrr8r.tfm
INPUT /usr/local/texlive/2017/texmf-dist/fonts/vf/adobe/helvetic/phvrc8t.vf
INPUT /usr/local/texlive/2017/texmf-dist/fonts/tfm/adobe/helvetic/phvr8r.tfm
INPUT /usr/local/texlive/2017/texmf-dist/fonts/tfm/adobe/helvetic/phvr8r.tfm
INPUT /usr/local/texlive/2017/texmf-dist/fonts/vf/adobe/helvetic/phvr8t.vf
INPUT /usr/local/texlive/2017/texmf-dist/fonts/tfm/adobe/helvetic/phvro8t.tfm
INPUT /usr/local/texlive/2017/texmf-dist/fonts/vf/adobe/helvetic/phvro8t.vf
INPUT /usr/local/texlive/2017/texmf-dist/fonts/tfm/adobe/helvetic/phvro8r.tfm
INPUT /Users/fabien/dossier sans titre/Cours/bloc4/4_bases_de_donnees_normalisation/cours/conception_bd.toc
INPUT /Users/fabien/dossier sans titre/Cours/bloc4/4_bases_de_donnees_normalisation/cours/conception_bd.toc
INPUT /Users/fabien/dossier sans titre/Cours/bloc4/4_bases_de_donnees_normalisation/cours/conception_bd.toc
INPUT /Users/fabien/dossier sans titre/Cours/bloc4/4_bases_de_donnees_normalisation/cours/conception_bd.toc
INPUT /usr/local/texlive/2017/texmf-dist/fonts/tfm/adobe/helvetic/phvro8t.tfm
INPUT /usr/local/texlive/2017/texmf-dist/fonts/tfm/adobe/helvetic/phvr8t.tfm
INPUT /usr/local/texlive/2017/texmf-dist/fonts/tfm/adobe/helvetic/phvro8t.tfm
INPUT /usr/local/texlive/2017/texmf-dist/fonts/tfm/public/cm/cmr9.tfm
INPUT /usr/local/texlive/2017/texmf-dist/fonts/tfm/public/cm/cmmi9.tfm
INPUT /usr/local/texlive/2017/texmf-dist/fonts/tfm/public/cm/cmsy9.tfm
INPUT /usr/local/texlive/2017/texmf-dist/fonts/tfm/public/amsfonts/cmextra/cmex9.tfm
INPUT /usr/local/texlive/2017/texmf-dist/fonts/tfm/public/cm/cmtt9.tfm
INPUT /usr/local/texlive/2017/texmf-dist/fonts/tfm/public/amsfonts/symbols/msam10.tfm
INPUT /usr/local/texlive/2017/texmf-dist/fonts/tfm/public/amsfonts/symbols/msbm10.tfm
INPUT /usr/local/texlive/2017/texmf-dist/fonts/tfm/public/wasy/wasy9.tfm
INPUT /usr/local/texlive/2017/texmf-dist/fonts/vf/adobe/helvetic/phvro8t.vf
INPUT /usr/local/texlive/2017/texmf-dist/fonts/tfm/adobe/helvetic/phvro8r.tfm
INPUT /usr/local/texlive/2017/texmf-dist/fonts/vf/adobe/helvetic/phvro8t.vf
INPUT /usr/local/texlive/2017/texmf-dist/fonts/tfm/adobe/helvetic/phvro8r.tfm
INPUT /usr/local/texlive/2017/texmf-dist/fonts/vf/adobe/helvetic/phvr8t.vf
INPUT /usr/local/texlive/2017/texmf-dist/fonts/tfm/adobe/helvetic/phvr8r.tfm
INPUT /usr/local/texlive/2017/texmf-dist/fonts/tfm/adobe/courier/pcrr8t.tfm
INPUT /Users/fabien/dossier sans titre/Cours/bloc4/4_bases_de_donnees_normalisation/cours/conception_bd.toc
INPUT /Users/fabien/dossier sans titre/Cours/bloc4/4_bases_de_donnees_normalisation/cours/conception_bd.toc
INPUT /Users/fabien/dossier sans titre/Cours/bloc4/4_bases_de_donnees_normalisation/cours/./NormalForms.png
INPUT ./NormalForms.png
INPUT ./NormalForms.png
INPUT /Users/fabien/dossier sans titre/Cours/bloc4/4_bases_de_donnees_normalisation/cours/conception_bd.toc
INPUT /Users/fabien/dossier sans titre/Cours/bloc4/4_bases_de_donnees_normalisation/cours/conception_bd.toc
INPUT /usr/local/texlive/2017/texmf-dist/fonts/tfm/adobe/courier/pcrr8t.tfm
INPUT /usr/local/texlive/2017/texmf-dist/fonts/tfm/adobe/helvetic/phvr8t.tfm
INPUT /usr/local/texlive/2017/texmf-dist/fonts/tfm/adobe/courier/pcrr8t.tfm
INPUT /usr/local/texlive/2017/texmf-dist/fonts/tfm/adobe/helvetic/phvro8t.tfm
INPUT /usr/local/texlive/2017/texmf-dist/fonts/vf/adobe/helvetic/phvr8t.vf
INPUT /usr/local/texlive/2017/texmf-dist/fonts/vf/adobe/helvetic/phvro8t.vf
INPUT /usr/local/texlive/2017/texmf-dist/fonts/tfm/adobe/helvetic/phvro8r.tfm
INPUT /usr/local/texlive/2017/texmf-dist/fonts/vf/adobe/courier/pcrr8t.vf
INPUT /usr/local/texlive/2017/texmf-dist/fonts/tfm/adobe/courier/pcrr8r.tfm
INPUT /Users/fabien/dossier sans titre/Cours/bloc4/4_bases_de_donnees_normalisation/cours/conception_bd.toc
INPUT /Users/fabien/dossier sans titre/Cours/bloc4/4_bases_de_donnees_normalisation/cours/conception_bd.toc
INPUT /Users/fabien/dossier sans titre/Cours/bloc4/4_bases_de_donnees_normalisation/cours/conception_bd.toc
INPUT /Users/fabien/dossier sans titre/Cours/bloc4/4_bases_de_donnees_normalisation/cours/conception_bd.toc
INPUT /Users/fabien/dossier sans titre/Cours/bloc4/4_bases_de_donnees_normalisation/cours/./base-etudiant-EA.png
INPUT ./base-etudiant-EA.png
INPUT ./base-etudiant-EA.png
INPUT /Users/fabien/dossier sans titre/Cours/bloc4/4_bases_de_donnees_normalisation/cours/conception_bd.toc
INPUT /Users/fabien/dossier sans titre/Cours/bloc4/4_bases_de_donnees_normalisation/cours/conception_bd.toc
INPUT /Users/fabien/dossier sans titre/Cours/bloc4/4_bases_de_donnees_normalisation/cours/base-etudiant.sql
INPUT /Users/fabien/dossier sans titre/Cours/bloc4/4_bases_de_donnees_normalisation/cours/base-etudiant.sql
INPUT /Users/fabien/dossier sans titre/Cours/bloc4/4_bases_de_donnees_normalisation/cours/base-etudiant.sql
OUTPUT /Users/fabien/dossier sans titre/Cours/bloc4/4_bases_de_donnees_normalisation/cours/conception_bd.nav
OUTPUT /Users/fabien/dossier sans titre/Cours/bloc4/4_bases_de_donnees_normalisation/cours/conception_bd.toc
OUTPUT /Users/fabien/dossier sans titre/Cours/bloc4/4_bases_de_donnees_normalisation/cours/conception_bd.snm
INPUT /Users/fabien/dossier sans titre/Cours/bloc4/4_bases_de_donnees_normalisation/cours/conception_bd.aux
INPUT /Users/fabien/dossier sans titre/Cours/bloc4/4_bases_de_donnees_normalisation/cours/conception_bd.out
INPUT /Users/fabien/dossier sans titre/Cours/bloc4/4_bases_de_donnees_normalisation/cours/conception_bd.out
INPUT /usr/local/texlive/2017/texmf-dist/fonts/enc/dvips/base/8r.enc
INPUT /usr/local/texlive/2017/texmf-dist/fonts/type1/public/amsfonts/cm/cmmi10.pfb
INPUT /usr/local/texlive/2017/texmf-dist/fonts/type1/public/amsfonts/cm/cmmi6.pfb
INPUT /usr/local/texlive/2017/texmf-dist/fonts/type1/public/amsfonts/cm/cmmi8.pfb
INPUT /usr/local/texlive/2017/texmf-dist/fonts/type1/public/amsfonts/cm/cmmi9.pfb
INPUT /usr/local/texlive/2017/texmf-dist/fonts/type1/public/amsfonts/cm/cmr10.pfb
INPUT /usr/local/texlive/2017/texmf-dist/fonts/type1/public/amsfonts/cm/cmr7.pfb
INPUT /usr/local/texlive/2017/texmf-dist/fonts/type1/public/amsfonts/cm/cmr8.pfb
INPUT /usr/local/texlive/2017/texmf-dist/fonts/type1/public/amsfonts/cm/cmr9.pfb
INPUT /usr/local/texlive/2017/texmf-dist/fonts/type1/public/amsfonts/cm/cmsy10.pfb
INPUT /usr/local/texlive/2017/texmf-dist/fonts/type1/public/amsfonts/cm/cmsy6.pfb
INPUT /usr/local/texlive/2017/texmf-dist/fonts/type1/public/amsfonts/cm/cmsy7.pfb
INPUT /usr/local/texlive/2017/texmf-dist/fonts/type1/public/amsfonts/cm/cmsy8.pfb
INPUT /usr/local/texlive/2017/texmf-dist/fonts/type1/public/amsfonts/cm/cmsy9.pfb
INPUT /usr/local/texlive/2017/texmf-dist/fonts/type1/public/amsfonts/cm/cmtt10.pfb
INPUT /usr/local/texlive/2017/texmf-dist/fonts/type1/urw/courier/ucrr8a.pfb
INPUT /usr/local/texlive/2017/texmf-dist/fonts/type1/urw/helvetic/uhvb8a.pfb
INPUT /usr/local/texlive/2017/texmf-dist/fonts/type1/urw/helvetic/uhvr8a.pfb
INPUT /usr/local/texlive/2017/texmf-dist/fonts/type1/urw/helvetic/uhvro8a.pfb
